{
    "key": "group_5c927337d4f31",
    "title": "Product Page Fields",
    "fields": [
        {
            "key": "field_5c92733c440b4",
            "label": "Introduction Paragraph Text",
            "name": "introduction_paragraph_text",
            "type": "textarea",
            "instructions": "Insert the small paragraph text to be added to the page, right underneath the header image.",
            "required": 1,
            "conditional_logic": 0,
            "wrapper": {
                "width": "",
                "class": "",
                "id": ""
            },
            "default_value": "",
            "placeholder": "",
            "maxlength": "",
            "rows": 2,
            "new_lines": ""
        },
        {
            "key": "field_5c92763d20dbb",
            "label": "Product List Left Side",
            "name": "product_list_left_side",
            "type": "wysiwyg",
            "instructions": "This is the list of products that gets populated on the left side of the page.",
            "required": 1,
            "conditional_logic": 0,
            "wrapper": {
                "width": "",
                "class": "",
                "id": ""
            },
            "default_value": "",
            "tabs": "all",
            "toolbar": "full",
            "media_upload": 0,
            "delay": 0
        },
        {
            "key": "field_5c92765520dbc",
            "label": "Product List Right Side",
            "name": "product_list_right_side",
            "type": "wysiwyg",
            "instructions": "This is the list of products that gets populated on the right side of the page.",
            "required": 1,
            "conditional_logic": 0,
            "wrapper": {
                "width": "",
                "class": "",
                "id": ""
            },
            "default_value": "",
            "tabs": "all",
            "toolbar": "full",
            "media_upload": 0,
            "delay": 0
        }
    ],
    "location": [
        [
            {
                "param": "post_template",
                "operator": "==",
                "value": "tp-products.php"
            }
        ]
    ],
    "menu_order": 0,
    "position": "normal",
    "style": "default",
    "label_placement": "top",
    "instruction_placement": "label",
    "hide_on_screen": "",
    "active": 1,
    "description": "",
    "modified": 1553698629
}